<?xml version="1.0" encoding="UTF-8"?>
<svg width="400px" height="400px" viewBox="0 0 400 400" version="1.1" xmlns="http://www.w3.org/2000/svg" xmlns:xlink="http://www.w3.org/1999/xlink">
    <!-- Generator: Sketch 53.2 (72643) - https://sketchapp.com -->
    <title>companies/oolu</title>
    <desc>Created with Sketch.</desc>
    <g id="companies/oolu" stroke="none" stroke-width="1" fill="none" fill-rule="evenodd">
        <g id="owl_logo" transform="translate(50.000000, 125.000000)" fill="#FFFFFF">
            <g id="text" transform="translate(7.480334, 33.382633)">
                <path d="M43.9640188,92.185299 C33.4037617,92.185299 24.9189271,83.3480736 24.9189271,72.4308224 C24.9189271,61.6891496 33.5760199,52.8512833 44.1388384,52.8512833 C54.35586,52.8512833 63.0123124,61.6891496 63.0123124,72.0847923 C63.0123124,83.1724953 54.5268374,92.185299 43.9640188,92.185299 Z M44.1388384,29.1136153 C20.071365,29.1136153 0.504375944,48.6931544 0.504375944,72.6057599 C0.504375944,96.3434279 20.071365,115.922967 43.9640188,115.922967 C68.0353344,115.922967 87.4268636,96.3434279 87.4268636,72.0847923 C87.4268636,48.3471242 67.8605148,29.1136153 44.1388384,29.1136153 L44.1388384,29.1136153 Z" id="Fill-8"></path>
                <path d="M135.105871,92.185299 C124.542412,92.185299 116.056937,83.3480736 116.056937,72.4308224 C116.056937,61.6891496 124.714029,52.8512833 135.276848,52.8512833 C145.49387,52.8512833 154.150962,61.6891496 154.150962,72.0847923 C154.150962,83.1724953 145.665487,92.185299 135.105871,92.185299 Z M135.276848,29.1136153 C111.208734,29.1136153 91.6430259,48.6931544 91.6430259,72.6057599 C91.6430259,96.3434279 111.208734,115.922967 135.105871,115.922967 C159.173344,115.922967 178.564873,96.3434279 178.564873,72.0847923 C178.564873,48.3471242 158.998524,29.1136153 135.276848,29.1136153 L135.276848,29.1136153 Z" id="Fill-9"></path>
                <polygon id="Fill-10" points="184.844931 114.361987 208.913045 114.361987 208.913045 0.366840464 184.844931 0.366840464"></polygon>
                <path d="M268.164726,33.1256426 L268.164726,77.1086374 C268.164726,86.4642673 263.317164,92.1872214 255.181328,92.1872214 C247.217111,92.1872214 242.368908,86.4642673 242.368908,77.1086374 L242.368908,33.1256426 L218.297592,33.1256426 L218.297592,74.8581598 C218.297592,99.4602624 233.016379,115.921685 255.181328,115.921685 C268.511164,115.921685 280.462934,108.99083 286.867223,97.9031268 C290.850933,91.3157381 292.236042,85.0820691 292.236042,74.8581598 L292.236042,33.1256426 L268.164726,33.1256426" id="Fill-11"></path>
            </g>
            <g id="owl" transform="translate(0.000000, 0.218512)">
                <path d="M41.9388486,55.5153614 C25.1392213,58.8617008 11.2794086,70.4550608 4.76312947,85.8333126 C1.84195465,86.2782083 1.0658141e-13,86.3383663 1.0658141e-13,86.3383663 L1.0658141e-13,2.55795385e-13 C1.0658141e-13,2.55795385e-13 8.11214222,11.128714 21.4861626,11.128714 C34.8563408,11.128714 42.968483,2.55795385e-13 42.968483,2.55795385e-13 L42.968483,45.5580728 C42.968483,49.1907898 42.6027796,52.5003146 41.9388486,55.5153614 Z" id="Combined-Shape" fill-opacity="0.5"></path>
                <path d="M42.9691234,-1.04805054e-13 C42.9691234,-1.04805054e-13 34.8563408,10.8461227 21.4829608,10.8461227 C8.11278259,10.8461227 0.000640364874,-1.04805054e-13 0.000640364874,-1.04805054e-13 C0.000640364874,-1.04805054e-13 8.36828817,15.825112 21.4829608,15.825112 C34.6008352,15.825112 42.9691234,-1.04805054e-13 42.9691234,-1.04805054e-13" id="Fill-3"></path>
                <path d="M21.4848819,35.285463 C20.1708532,36.743916 18.5167907,37.8864563 16.6469253,38.5894101 L21.4848819,43.9573629 L26.3228385,38.5887693 C24.4536134,37.8858155 22.7989106,36.7432752 21.4848819,35.285463 Z M13.2606758,39.3352973 L13.2606758,53.5648259 C13.2606758,73.9556134 0.00128072975,75.6812786 0.00128072975,75.6812786 L0.00128072975,27.0742958 C0.0230531355,33.8718658 5.5365947,39.3743859 12.3340678,39.3743859 C12.6465659,39.3743859 12.9545814,39.358366 13.2606758,39.3352973 L13.2606758,39.3352973 Z" id="Fill-5"></path>
                <path d="M30.6350556,17.4194139 C26.3484531,17.4194139 22.7214265,20.23187 21.4848819,24.1118932 C20.2489777,20.23187 16.6213107,17.4194139 12.3315064,17.4194139 C7.02672376,17.4194139 2.72667363,21.7255668 2.72667363,27.0339256 C2.72667363,32.3429251 7.02672376,36.6490781 12.3315064,36.6490781 C16.6213107,36.6490781 20.2489777,33.8366219 21.4848819,29.9565987 C22.7214265,33.8366219 26.3484531,36.6490781 30.6350556,36.6490781 C35.9436804,36.6490781 40.2430901,32.3429251 40.2430901,27.0339256 C40.2430901,21.7255668 35.9436804,17.4194139 30.6350556,17.4194139" id="Fill-6"></path>
            </g>
        </g>
    </g>
</svg>