<?xml version="1.0" encoding="UTF-8"?>
<svg width="400px" height="400px" viewBox="0 0 400 400" version="1.1" xmlns="http://www.w3.org/2000/svg" xmlns:xlink="http://www.w3.org/1999/xlink">
    <!-- Generator: Sketch 53.2 (72643) - https://sketchapp.com -->
    <title>companies/sunesis</title>
    <desc>Created with Sketch.</desc>
    <g id="companies/sunesis" stroke="none" stroke-width="1" fill="none" fill-rule="evenodd">
        <path d="M36.8038741,204.319267 C46.4891041,206.533034 56.0359737,209.992044 56.0359737,221.199239 C56.0359737,237.110688 42.0615704,242.230024 28.3638879,242.230024 C14.6662055,242.230024 1.10688343,237.249049 -2.13162821e-14,221.891041 L15.7730889,221.891041 C16.3265306,228.393981 22.4143895,231.16119 28.5022484,231.16119 C33.2065029,231.16119 39.4327222,229.224144 39.4327222,223.413006 C39.4327222,218.29367 32.3763404,216.494984 20.6157039,214.004497 C10.7921135,211.79073 1.38360429,208.60844 1.38360429,197.816327 C1.38360429,182.458319 14.6662055,178.445866 27.6720858,178.445866 C40.8163265,178.445866 53.1304047,183.011761 54.3756486,197.816327 L38.6025597,197.816327 C38.1874784,191.451747 33.2065029,189.653061 27.2570045,189.653061 C23.5212729,189.653061 17.9868558,190.344863 17.9868558,195.325839 C17.9868558,201.275337 27.3953649,202.1055 36.8038741,204.319267 Z M97.6824628,215.526461 L97.8208232,215.526461 L97.8208232,180.106192 L113.317191,180.106192 L113.317191,214.97302 C113.317191,230.331027 102.525078,241.953303 86.0601868,241.953303 C69.041854,241.953303 59.0799031,230.884469 59.0799031,214.97302 L59.0799031,180.106192 L74.5762712,180.106192 L74.5762712,215.526461 C74.5762712,218.847112 75.6831546,227.010377 85.9218264,227.010377 C92.7014874,227.010377 97.6824628,222.167762 97.6824628,215.526461 Z M144.171567,178.584227 C161.051539,178.584227 171.151851,189.791422 171.01349,205.564511 L171.01349,240.569699 L155.517122,240.569699 L155.517122,205.149429 C155.517122,201.828779 154.410239,193.665514 144.171567,193.665514 C137.391906,193.665514 132.41093,198.369768 132.41093,205.149429 L132.41093,240.569699 L116.914562,240.569699 L116.914562,205.564511 C116.914562,190.206503 127.706676,178.584227 144.171567,178.584227 Z M206.43376,229.777586 C213.075061,229.777586 218.471117,225.626773 219.578001,221.891041 L234.244206,221.891041 C229.539952,236.280526 219.578001,242.230024 205.880318,242.230024 C186.786579,242.230024 175.025943,229.085783 175.025943,210.407126 C175.025943,192.281909 187.478381,178.445866 205.880318,178.445866 C226.496022,178.445866 236.457973,195.879281 235.212729,214.419578 L191.629194,214.419578 C192.044275,225.073331 197.025251,229.777586 206.43376,229.777586 Z M205.326877,191.036666 C194.673123,191.036666 191.905915,199.199931 191.629194,203.904185 L218.609478,203.904185 C217.087513,195.464199 213.351781,191.036666 205.326877,191.036666 Z M274.23037,204.319267 C284.053961,206.533034 293.46247,209.992044 293.46247,221.199239 C293.46247,237.110688 279.488066,242.230024 265.790384,242.230024 C252.092701,242.230024 238.533379,237.249049 237.426496,221.891041 L253.199585,221.891041 C253.753027,228.393981 259.840886,231.16119 265.928744,231.16119 C270.632999,231.16119 276.859218,229.224144 276.859218,223.413006 C276.859218,218.29367 269.802836,216.494984 258.0422,214.004497 C248.218609,211.79073 238.8101,208.60844 238.8101,197.816327 C238.8101,182.458319 252.092701,178.445866 265.098582,178.445866 C278.242823,178.445866 290.556901,183.011761 291.802145,197.816327 L276.029056,197.816327 C275.613974,191.451747 270.632999,189.653061 264.683501,189.653061 C260.947769,189.653061 255.413352,190.344863 255.413352,195.325839 C255.413352,201.275337 264.821861,202.1055 274.23037,204.319267 Z M297.751643,157.13836 L314.354895,157.13836 L314.354895,170.836043 L297.751643,170.836043 L297.751643,157.13836 Z M297.751643,180.106192 L314.354895,180.106192 L314.354895,240.569699 L297.751643,240.569699 L297.751643,180.106192 Z M355.309581,204.319267 C364.994811,206.533034 374.403321,209.992044 374.541681,221.199239 C374.541681,237.110688 360.567278,242.230024 346.869595,242.230024 C333.171913,242.230024 319.612591,237.249049 318.505707,221.891041 L334.278796,221.891041 C334.832238,228.393981 340.920097,231.16119 347.007956,231.16119 C351.71221,231.16119 357.93843,229.224144 357.93843,223.413006 C357.93843,218.29367 350.882048,216.494984 339.121411,214.004497 C329.436181,211.79073 319.889312,208.60844 319.889312,197.816327 C319.889312,182.458319 333.171913,178.445866 346.177793,178.445866 C359.322034,178.445866 371.636112,183.011761 372.881356,197.816327 L357.108267,197.816327 C356.693186,191.451747 351.71221,189.653061 345.762712,189.653061 C342.02698,189.653061 336.492563,190.344863 336.492563,195.325839 C336.492563,201.275337 345.901072,202.1055 355.309581,204.319267 Z M372.604635,157 L383.95019,157 L383.95019,159.075406 L379.522657,159.075406 L379.522657,170.974403 L377.032169,170.974403 L377.032169,159.075406 L372.604635,159.075406 L372.604635,157 Z M385.472155,157 L388.931166,157 L392.805258,167.930474 L396.540989,157 L400,157 L400,170.974403 L397.647873,170.974403 L397.647873,160.18229 L393.773781,170.974403 L391.698374,170.974403 L387.824282,160.18229 L387.824282,170.974403 L385.472155,170.974403 L385.472155,157 Z" id="Combined-Shape" fill="#FFFFFF" fill-rule="nonzero"></path>
    </g>
</svg>